%YAML 1.1
%TAG !u! tag:unity3d.com,2011:
--- !u!95 &113281171999909640
Animator:
  serializedVersion: 3
  m_ObjectHideFlags: 0
  m_CorrespondingSourceObject: {fileID: 0}
  m_PrefabInstance: {fileID: 0}
  m_PrefabAsset: {fileID: 0}
  m_GameObject: {fileID: 3092545358577020363}
  m_Enabled: 1
  m_Avatar: {fileID: 0}
  m_Controller: {fileID: 9100000, guid: f9b7b1035c0fdc943b5f43f567026236, type: 2}
  m_CullingMode: 0
  m_UpdateMode: 0
  m_ApplyRootMotion: 0
  m_LinearVelocityBlending: 0
  m_WarningMessage: 
  m_HasTransformHierarchy: 1
  m_AllowConstantClipSamplingOptimization: 1
  m_KeepAnimatorControllerStateOnDisable: 0
--- !u!1001 &6325481742902597375
PrefabInstance:
  m_ObjectHideFlags: 0
  serializedVersion: 2
  m_Modification:
    m_TransformParent: {fileID: 0}
    m_Modifications:
    - target: {fileID: -6960260319309750747, guid: 5b0245de7100fef4285b7b12ae9c3f21, type: 3}
      propertyPath: m_Size.x
      value: 2.372547
      objectReference: {fileID: 0}
    - target: {fileID: -6960260319309750747, guid: 5b0245de7100fef4285b7b12ae9c3f21, type: 3}
      propertyPath: m_Size.y
      value: 2
      objectReference: {fileID: 0}
    - target: {fileID: -6960260319309750747, guid: 5b0245de7100fef4285b7b12ae9c3f21, type: 3}
      propertyPath: m_Offset.x
      value: 0.07704437
      objectReference: {fileID: 0}
    - target: {fileID: -6960260319309750747, guid: 5b0245de7100fef4285b7b12ae9c3f21, type: 3}
      propertyPath: m_Offset.y
      value: 0.7
      objectReference: {fileID: 0}
    - target: {fileID: -6960260319309750747, guid: 5b0245de7100fef4285b7b12ae9c3f21, type: 3}
      propertyPath: m_SpriteTilingProperty.pivot.x
      value: 0.5
      objectReference: {fileID: 0}
    - target: {fileID: -6960260319309750747, guid: 5b0245de7100fef4285b7b12ae9c3f21, type: 3}
      propertyPath: m_SpriteTilingProperty.pivot.y
      value: 0.2
      objectReference: {fileID: 0}
    - target: {fileID: -6960260319309750747, guid: 5b0245de7100fef4285b7b12ae9c3f21, type: 3}
      propertyPath: m_SpriteTilingProperty.newSize.x
      value: 0.32
      objectReference: {fileID: 0}
    - target: {fileID: -6960260319309750747, guid: 5b0245de7100fef4285b7b12ae9c3f21, type: 3}
      propertyPath: m_SpriteTilingProperty.newSize.y
      value: 0.32
      objectReference: {fileID: 0}
    - target: {fileID: -6960260319309750747, guid: 5b0245de7100fef4285b7b12ae9c3f21, type: 3}
      propertyPath: m_SpriteTilingProperty.oldSize.x
      value: 4.8
      objectReference: {fileID: 0}
    - target: {fileID: -6960260319309750747, guid: 5b0245de7100fef4285b7b12ae9c3f21, type: 3}
      propertyPath: m_SpriteTilingProperty.oldSize.y
      value: 4.8
      objectReference: {fileID: 0}
    - target: {fileID: -6960260319309750747, guid: 5b0245de7100fef4285b7b12ae9c3f21, type: 3}
      propertyPath: m_SpriteTilingProperty.adaptiveTilingThreshold
      value: 0.5
      objectReference: {fileID: 0}
    - target: {fileID: -4005476116631415977, guid: 5b0245de7100fef4285b7b12ae9c3f21, type: 3}
      propertyPath: m_Size.x
      value: 0.32
      objectReference: {fileID: 0}
    - target: {fileID: -4005476116631415977, guid: 5b0245de7100fef4285b7b12ae9c3f21, type: 3}
      propertyPath: m_Size.y
      value: 0.32
      objectReference: {fileID: 0}
    - target: {fileID: -4005476116631415977, guid: 5b0245de7100fef4285b7b12ae9c3f21, type: 3}
      propertyPath: m_Sprite
      value: 
      objectReference: {fileID: 21300000, guid: 529982d10d01f9e408deea52b044baa5, type: 3}
    - target: {fileID: -4005476116631415977, guid: 5b0245de7100fef4285b7b12ae9c3f21, type: 3}
      propertyPath: m_SortingLayer
      value: 1
      objectReference: {fileID: 0}
    - target: {fileID: -4005476116631415977, guid: 5b0245de7100fef4285b7b12ae9c3f21, type: 3}
      propertyPath: m_SortingOrder
      value: 1
      objectReference: {fileID: 0}
    - target: {fileID: -4005476116631415977, guid: 5b0245de7100fef4285b7b12ae9c3f21, type: 3}
      propertyPath: m_SortingLayerID
      value: 100050103
      objectReference: {fileID: 0}
    - target: {fileID: -4005476116631415977, guid: 5b0245de7100fef4285b7b12ae9c3f21, type: 3}
      propertyPath: m_WasSpriteAssigned
      value: 1
      objectReference: {fileID: 0}
    - target: {fileID: 3665756377625723675, guid: 5b0245de7100fef4285b7b12ae9c3f21, type: 3}
      propertyPath: _name
      value: Healer
      objectReference: {fileID: 0}
    - target: {fileID: 3665756377625723675, guid: 5b0245de7100fef4285b7b12ae9c3f21, type: 3}
      propertyPath: _cEnum
      value: 4
      objectReference: {fileID: 0}
    - target: {fileID: 4062424799024222133, guid: 5b0245de7100fef4285b7b12ae9c3f21, type: 3}
      propertyPath: _character
      value: 
      objectReference: {fileID: 11400000, guid: 6f3250604e7c3c348954b0339f1eeb7f, type: 2}
    - target: {fileID: 4363480194398948944, guid: 5b0245de7100fef4285b7b12ae9c3f21, type: 3}
      propertyPath: _life
      value: 75
      objectReference: {fileID: 0}
    - target: {fileID: 4363480194398948944, guid: 5b0245de7100fef4285b7b12ae9c3f21, type: 3}
      propertyPath: _name
      value: Compassionnate Healer
      objectReference: {fileID: 0}
    - target: {fileID: 4363480194398948944, guid: 5b0245de7100fef4285b7b12ae9c3f21, type: 3}
      propertyPath: _cEnum
      value: 4
      objectReference: {fileID: 0}
    - target: {fileID: 4363480194398948944, guid: 5b0245de7100fef4285b7b12ae9c3f21, type: 3}
      propertyPath: _sprite
      value: 
      objectReference: {fileID: 2279121097107572136}
    - target: {fileID: 4363480194398948944, guid: 5b0245de7100fef4285b7b12ae9c3f21, type: 3}
      propertyPath: _animator
      value: 
      objectReference: {fileID: 113281171999909640}
    - target: {fileID: 4363480194398948944, guid: 5b0245de7100fef4285b7b12ae9c3f21, type: 3}
      propertyPath: _selectedForUi
      value: 1
      objectReference: {fileID: 0}
    - target: {fileID: 4847168259940066380, guid: 5b0245de7100fef4285b7b12ae9c3f21, type: 3}
      propertyPath: _character
      value: 
      objectReference: {fileID: 11400000, guid: 6f3250604e7c3c348954b0339f1eeb7f, type: 2}
    - target: {fileID: 7139604569637495048, guid: 5b0245de7100fef4285b7b12ae9c3f21, type: 3}
      propertyPath: m_RootOrder
      value: 0
      objectReference: {fileID: 0}
    - target: {fileID: 7139604569637495048, guid: 5b0245de7100fef4285b7b12ae9c3f21, type: 3}
      propertyPath: m_LocalScale.x
      value: 0.25
      objectReference: {fileID: 0}
    - target: {fileID: 7139604569637495048, guid: 5b0245de7100fef4285b7b12ae9c3f21, type: 3}
      propertyPath: m_LocalScale.y
      value: 0.25
      objectReference: {fileID: 0}
    - target: {fileID: 7139604569637495048, guid: 5b0245de7100fef4285b7b12ae9c3f21, type: 3}
      propertyPath: m_LocalPosition.x
      value: 0
      objectReference: {fileID: 0}
    - target: {fileID: 7139604569637495048, guid: 5b0245de7100fef4285b7b12ae9c3f21, type: 3}
      propertyPath: m_LocalPosition.y
      value: -0.1
      objectReference: {fileID: 0}
    - target: {fileID: 7139604569637495048, guid: 5b0245de7100fef4285b7b12ae9c3f21, type: 3}
      propertyPath: m_LocalPosition.z
      value: 2
      objectReference: {fileID: 0}
    - target: {fileID: 7139604569637495048, guid: 5b0245de7100fef4285b7b12ae9c3f21, type: 3}
      propertyPath: m_LocalRotation.w
      value: 1
      objectReference: {fileID: 0}
    - target: {fileID: 7139604569637495048, guid: 5b0245de7100fef4285b7b12ae9c3f21, type: 3}
      propertyPath: m_LocalRotation.x
      value: 0
      objectReference: {fileID: 0}
    - target: {fileID: 7139604569637495048, guid: 5b0245de7100fef4285b7b12ae9c3f21, type: 3}
      propertyPath: m_LocalRotation.y
      value: 0
      objectReference: {fileID: 0}
    - target: {fileID: 7139604569637495048, guid: 5b0245de7100fef4285b7b12ae9c3f21, type: 3}
      propertyPath: m_LocalRotation.z
      value: 0
      objectReference: {fileID: 0}
    - target: {fileID: 7139604569637495048, guid: 5b0245de7100fef4285b7b12ae9c3f21, type: 3}
      propertyPath: m_LocalEulerAnglesHint.x
      value: 0
      objectReference: {fileID: 0}
    - target: {fileID: 7139604569637495048, guid: 5b0245de7100fef4285b7b12ae9c3f21, type: 3}
      propertyPath: m_LocalEulerAnglesHint.y
      value: 0
      objectReference: {fileID: 0}
    - target: {fileID: 7139604569637495048, guid: 5b0245de7100fef4285b7b12ae9c3f21, type: 3}
      propertyPath: m_LocalEulerAnglesHint.z
      value: 0
      objectReference: {fileID: 0}
    - target: {fileID: 9016854889957538612, guid: 5b0245de7100fef4285b7b12ae9c3f21, type: 3}
      propertyPath: m_Name
      value: Healer
      objectReference: {fileID: 0}
    - target: {fileID: 9016854889957538612, guid: 5b0245de7100fef4285b7b12ae9c3f21, type: 3}
      propertyPath: m_IsActive
      value: 1
      objectReference: {fileID: 0}
    m_RemovedComponents:
    - {fileID: -8742545067776568609, guid: 5b0245de7100fef4285b7b12ae9c3f21, type: 3}
  m_SourcePrefab: {fileID: 100100000, guid: 5b0245de7100fef4285b7b12ae9c3f21, type: 3}
--- !u!1 &3092545358577020363 stripped
GameObject:
  m_CorrespondingSourceObject: {fileID: 9016854889957538612, guid: 5b0245de7100fef4285b7b12ae9c3f21, type: 3}
  m_PrefabInstance: {fileID: 6325481742902597375}
  m_PrefabAsset: {fileID: 0}
--- !u!212 &2279121097107572136 stripped
SpriteRenderer:
  m_CorrespondingSourceObject: {fileID: -4005476116631415977, guid: 5b0245de7100fef4285b7b12ae9c3f21, type: 3}
  m_PrefabInstance: {fileID: 6325481742902597375}
  m_PrefabAsset: {fileID: 0}
