%YAML 1.1
%TAG !u! tag:unity3d.com,2011:
--- !u!74 &7400000
AnimationClip:
  m_ObjectHideFlags: 0
  m_CorrespondingSourceObject: {fileID: 0}
  m_PrefabInstance: {fileID: 0}
  m_PrefabAsset: {fileID: 0}
  m_Name: Monster 05 Healing
  serializedVersion: 6
  m_Legacy: 0
  m_Compressed: 0
  m_UseHighQualityCurve: 1
  m_RotationCurves: []
  m_CompressedRotationCurves: []
  m_EulerCurves: []
  m_PositionCurves: []
  m_ScaleCurves: []
  m_FloatCurves: []
  m_PPtrCurves:
  - curve:
    - time: 0
      value: {fileID: 21300000, guid: befe864bd24a0eb4c808ef31ad728a93, type: 3}
    - time: 0.016666668
      value: {fileID: 21300000, guid: 11561a2b72a1c014cac9598fdf69231e, type: 3}
    - time: 0.033333335
      value: {fileID: 21300000, guid: 81bef5c9ca1aeb34686bc632daefc5a8, type: 3}
    - time: 0.05
      value: {fileID: 21300000, guid: 0583d06ee9a4a9e4caf4666ab8555ab4, type: 3}
    - time: 0.06666667
      value: {fileID: 21300000, guid: 9064ded3e93604c4dabec785d706dbae, type: 3}
    - time: 0.083333336
      value: {fileID: 21300000, guid: 321c0728186bd5c4184bd0b779dd8416, type: 3}
    attribute: m_Sprite
    path: 
    classID: 212
    script: {fileID: 0}
  m_SampleRate: 60
  m_WrapMode: 0
  m_Bounds:
    m_Center: {x: 0, y: 0, z: 0}
    m_Extent: {x: 0, y: 0, z: 0}
  m_ClipBindingConstant:
    genericBindings:
    - serializedVersion: 2
      path: 0
      attribute: 0
      script: {fileID: 0}
      typeID: 212
      customType: 23
      isPPtrCurve: 1
    pptrCurveMapping:
    - {fileID: 21300000, guid: befe864bd24a0eb4c808ef31ad728a93, type: 3}
    - {fileID: 21300000, guid: 11561a2b72a1c014cac9598fdf69231e, type: 3}
    - {fileID: 21300000, guid: 81bef5c9ca1aeb34686bc632daefc5a8, type: 3}
    - {fileID: 21300000, guid: 0583d06ee9a4a9e4caf4666ab8555ab4, type: 3}
    - {fileID: 21300000, guid: 9064ded3e93604c4dabec785d706dbae, type: 3}
    - {fileID: 21300000, guid: 321c0728186bd5c4184bd0b779dd8416, type: 3}
  m_AnimationClipSettings:
    serializedVersion: 2
    m_AdditiveReferencePoseClip: {fileID: 0}
    m_AdditiveReferencePoseTime: 0
    m_StartTime: 0
    m_StopTime: 0.1
    m_OrientationOffsetY: 0
    m_Level: 0
    m_CycleOffset: 0
    m_HasAdditiveReferencePose: 0
    m_LoopTime: 0
    m_LoopBlend: 0
    m_LoopBlendOrientation: 0
    m_LoopBlendPositionY: 0
    m_LoopBlendPositionXZ: 0
    m_KeepOriginalOrientation: 0
    m_KeepOriginalPositionY: 1
    m_KeepOriginalPositionXZ: 0
    m_HeightFromFeet: 0
    m_Mirror: 0
  m_EditorCurves: []
  m_EulerEditorCurves: []
  m_HasGenericRootTransform: 0
  m_HasMotionFloatCurves: 0
  m_Events: []
