%YAML 1.1
%TAG !u! tag:unity3d.com,2011:
--- !u!1001 &847005459384759387
PrefabInstance:
  m_ObjectHideFlags: 0
  serializedVersion: 2
  m_Modification:
    m_TransformParent: {fileID: 0}
    m_Modifications:
    - target: {fileID: -6631531891774784459, guid: 7aa6d0240a1c4234d8b6169be2ce7a04, type: 3}
      propertyPath: m_Size.x
      value: 1.28
      objectReference: {fileID: 0}
    - target: {fileID: -6631531891774784459, guid: 7aa6d0240a1c4234d8b6169be2ce7a04, type: 3}
      propertyPath: m_Size.y
      value: 1.28
      objectReference: {fileID: 0}
    - target: {fileID: -6631531891774784459, guid: 7aa6d0240a1c4234d8b6169be2ce7a04, type: 3}
      propertyPath: m_Sprite
      value: 
      objectReference: {fileID: 21300000, guid: 5447654410b29b54bbee649106d9f847, type: 3}
    - target: {fileID: -6631531891774784459, guid: 7aa6d0240a1c4234d8b6169be2ce7a04, type: 3}
      propertyPath: m_SortingOrder
      value: 2
      objectReference: {fileID: 0}
    - target: {fileID: -6631531891774784459, guid: 7aa6d0240a1c4234d8b6169be2ce7a04, type: 3}
      propertyPath: m_WasSpriteAssigned
      value: 1
      objectReference: {fileID: 0}
    - target: {fileID: -3299693918676789919, guid: 7aa6d0240a1c4234d8b6169be2ce7a04, type: 3}
      propertyPath: item
      value: 
      objectReference: {fileID: 11400000, guid: b0b29fd8f4ef3924aa57afae6c8d091e, type: 2}
    - target: {fileID: 1353641706907472932, guid: 7aa6d0240a1c4234d8b6169be2ce7a04, type: 3}
      propertyPath: m_RootOrder
      value: 0
      objectReference: {fileID: 0}
    - target: {fileID: 1353641706907472932, guid: 7aa6d0240a1c4234d8b6169be2ce7a04, type: 3}
      propertyPath: m_LocalPosition.x
      value: 0
      objectReference: {fileID: 0}
    - target: {fileID: 1353641706907472932, guid: 7aa6d0240a1c4234d8b6169be2ce7a04, type: 3}
      propertyPath: m_LocalPosition.y
      value: 0
      objectReference: {fileID: 0}
    - target: {fileID: 1353641706907472932, guid: 7aa6d0240a1c4234d8b6169be2ce7a04, type: 3}
      propertyPath: m_LocalPosition.z
      value: 0
      objectReference: {fileID: 0}
    - target: {fileID: 1353641706907472932, guid: 7aa6d0240a1c4234d8b6169be2ce7a04, type: 3}
      propertyPath: m_LocalRotation.w
      value: 1
      objectReference: {fileID: 0}
    - target: {fileID: 1353641706907472932, guid: 7aa6d0240a1c4234d8b6169be2ce7a04, type: 3}
      propertyPath: m_LocalRotation.x
      value: 0
      objectReference: {fileID: 0}
    - target: {fileID: 1353641706907472932, guid: 7aa6d0240a1c4234d8b6169be2ce7a04, type: 3}
      propertyPath: m_LocalRotation.y
      value: 0
      objectReference: {fileID: 0}
    - target: {fileID: 1353641706907472932, guid: 7aa6d0240a1c4234d8b6169be2ce7a04, type: 3}
      propertyPath: m_LocalRotation.z
      value: 0
      objectReference: {fileID: 0}
    - target: {fileID: 1353641706907472932, guid: 7aa6d0240a1c4234d8b6169be2ce7a04, type: 3}
      propertyPath: m_LocalEulerAnglesHint.x
      value: 0
      objectReference: {fileID: 0}
    - target: {fileID: 1353641706907472932, guid: 7aa6d0240a1c4234d8b6169be2ce7a04, type: 3}
      propertyPath: m_LocalEulerAnglesHint.y
      value: 0
      objectReference: {fileID: 0}
    - target: {fileID: 1353641706907472932, guid: 7aa6d0240a1c4234d8b6169be2ce7a04, type: 3}
      propertyPath: m_LocalEulerAnglesHint.z
      value: 0
      objectReference: {fileID: 0}
    - target: {fileID: 2768917606233215028, guid: 7aa6d0240a1c4234d8b6169be2ce7a04, type: 3}
      propertyPath: m_Size.x
      value: 0.93130994
      objectReference: {fileID: 0}
    - target: {fileID: 2768917606233215028, guid: 7aa6d0240a1c4234d8b6169be2ce7a04, type: 3}
      propertyPath: m_Size.y
      value: 1.2773926
      objectReference: {fileID: 0}
    - target: {fileID: 2768917606233215028, guid: 7aa6d0240a1c4234d8b6169be2ce7a04, type: 3}
      propertyPath: m_Offset.x
      value: 0.004909396
      objectReference: {fileID: 0}
    - target: {fileID: 2768917606233215028, guid: 7aa6d0240a1c4234d8b6169be2ce7a04, type: 3}
      propertyPath: m_Offset.y
      value: -0.0023373365
      objectReference: {fileID: 0}
    - target: {fileID: 2768917606233215028, guid: 7aa6d0240a1c4234d8b6169be2ce7a04, type: 3}
      propertyPath: m_SpriteTilingProperty.pivot.x
      value: 0.5
      objectReference: {fileID: 0}
    - target: {fileID: 2768917606233215028, guid: 7aa6d0240a1c4234d8b6169be2ce7a04, type: 3}
      propertyPath: m_SpriteTilingProperty.pivot.y
      value: 0.5
      objectReference: {fileID: 0}
    - target: {fileID: 2768917606233215028, guid: 7aa6d0240a1c4234d8b6169be2ce7a04, type: 3}
      propertyPath: m_SpriteTilingProperty.newSize.x
      value: 1.28
      objectReference: {fileID: 0}
    - target: {fileID: 2768917606233215028, guid: 7aa6d0240a1c4234d8b6169be2ce7a04, type: 3}
      propertyPath: m_SpriteTilingProperty.newSize.y
      value: 1.28
      objectReference: {fileID: 0}
    - target: {fileID: 2768917606233215028, guid: 7aa6d0240a1c4234d8b6169be2ce7a04, type: 3}
      propertyPath: m_SpriteTilingProperty.oldSize.x
      value: 1.28
      objectReference: {fileID: 0}
    - target: {fileID: 2768917606233215028, guid: 7aa6d0240a1c4234d8b6169be2ce7a04, type: 3}
      propertyPath: m_SpriteTilingProperty.oldSize.y
      value: 1.28
      objectReference: {fileID: 0}
    - target: {fileID: 2768917606233215028, guid: 7aa6d0240a1c4234d8b6169be2ce7a04, type: 3}
      propertyPath: m_SpriteTilingProperty.adaptiveTilingThreshold
      value: 0.5
      objectReference: {fileID: 0}
    - target: {fileID: 8896899303134819189, guid: 7aa6d0240a1c4234d8b6169be2ce7a04, type: 3}
      propertyPath: m_Name
      value: Potion
      objectReference: {fileID: 0}
    m_RemovedComponents: []
  m_SourcePrefab: {fileID: 100100000, guid: 7aa6d0240a1c4234d8b6169be2ce7a04, type: 3}
