%YAML 1.1
%TAG !u! tag:unity3d.com,2011:
--- !u!114 &11400000
MonoBehaviour:
  m_ObjectHideFlags: 0
  m_CorrespondingSourceObject: {fileID: 0}
  m_PrefabInstance: {fileID: 0}
  m_PrefabAsset: {fileID: 0}
  m_GameObject: {fileID: 0}
  m_Enabled: 1
  m_EditorHideFlags: 0
  m_Script: {fileID: 11500000, guid: b7d112170b8ba79499b628ebb93096a2, type: 3}
  m_Name: Soldier
  m_EditorClassIdentifier: 
  _baseLife: 150
  _baseInitiative: 0
  _baseActionPoint: 2
  _baseMovementPoint: 4
  _baseAttack: 15
  _baseDefense: 20
  _sprite: {fileID: 21300000, guid: f6fc57403915a2d479a72b7cbc08c823, type: 3}
  _associatedPrefab: {fileID: 1621548932489037945, guid: 8617acb9a9d9b804ba1d0dac9e2b1452, type: 3}
  _moves:
  - {fileID: 11400000, guid: d350680317440c545b4d4f67b1738ebc, type: 2}
  - {fileID: 11400000, guid: e75ee66383afe4840bc5e12a59d972ed, type: 2}
  _currentMove: {fileID: 0}
