%YAML 1.1
%TAG !u! tag:unity3d.com,2011:
--- !u!95 &3407063324876751154
Animator:
  serializedVersion: 3
  m_ObjectHideFlags: 0
  m_CorrespondingSourceObject: {fileID: 0}
  m_PrefabInstance: {fileID: 0}
  m_PrefabAsset: {fileID: 0}
  m_GameObject: {fileID: 6742098866910330366}
  m_Enabled: 1
  m_Avatar: {fileID: 0}
  m_Controller: {fileID: 9100000, guid: 1ad8573dea23cfd4fad3eebde25d52cb, type: 2}
  m_CullingMode: 0
  m_UpdateMode: 0
  m_ApplyRootMotion: 0
  m_LinearVelocityBlending: 0
  m_WarningMessage: 
  m_HasTransformHierarchy: 1
  m_AllowConstantClipSamplingOptimization: 1
  m_KeepAnimatorControllerStateOnDisable: 0
--- !u!1001 &585307692886016458
PrefabInstance:
  m_ObjectHideFlags: 0
  serializedVersion: 2
  m_Modification:
    m_TransformParent: {fileID: 0}
    m_Modifications:
    - target: {fileID: 3053402022745634022, guid: d31d9ab1baeb2f64bb9c1fe79d807607, type: 3}
      propertyPath: _name
      value: Bubulle
      objectReference: {fileID: 0}
    - target: {fileID: 3053402022745634022, guid: d31d9ab1baeb2f64bb9c1fe79d807607, type: 3}
      propertyPath: _cEnum
      value: 8
      objectReference: {fileID: 0}
    - target: {fileID: 3269074020218702824, guid: d31d9ab1baeb2f64bb9c1fe79d807607, type: 3}
      propertyPath: m_RootOrder
      value: 0
      objectReference: {fileID: 0}
    - target: {fileID: 3269074020218702824, guid: d31d9ab1baeb2f64bb9c1fe79d807607, type: 3}
      propertyPath: m_LocalScale.x
      value: 0.14
      objectReference: {fileID: 0}
    - target: {fileID: 3269074020218702824, guid: d31d9ab1baeb2f64bb9c1fe79d807607, type: 3}
      propertyPath: m_LocalScale.y
      value: 0.14
      objectReference: {fileID: 0}
    - target: {fileID: 3269074020218702824, guid: d31d9ab1baeb2f64bb9c1fe79d807607, type: 3}
      propertyPath: m_LocalPosition.x
      value: 0
      objectReference: {fileID: 0}
    - target: {fileID: 3269074020218702824, guid: d31d9ab1baeb2f64bb9c1fe79d807607, type: 3}
      propertyPath: m_LocalPosition.y
      value: 0
      objectReference: {fileID: 0}
    - target: {fileID: 3269074020218702824, guid: d31d9ab1baeb2f64bb9c1fe79d807607, type: 3}
      propertyPath: m_LocalPosition.z
      value: 0
      objectReference: {fileID: 0}
    - target: {fileID: 3269074020218702824, guid: d31d9ab1baeb2f64bb9c1fe79d807607, type: 3}
      propertyPath: m_LocalRotation.w
      value: 1
      objectReference: {fileID: 0}
    - target: {fileID: 3269074020218702824, guid: d31d9ab1baeb2f64bb9c1fe79d807607, type: 3}
      propertyPath: m_LocalRotation.x
      value: 0
      objectReference: {fileID: 0}
    - target: {fileID: 3269074020218702824, guid: d31d9ab1baeb2f64bb9c1fe79d807607, type: 3}
      propertyPath: m_LocalRotation.y
      value: 0
      objectReference: {fileID: 0}
    - target: {fileID: 3269074020218702824, guid: d31d9ab1baeb2f64bb9c1fe79d807607, type: 3}
      propertyPath: m_LocalRotation.z
      value: 0
      objectReference: {fileID: 0}
    - target: {fileID: 3269074020218702824, guid: d31d9ab1baeb2f64bb9c1fe79d807607, type: 3}
      propertyPath: m_LocalEulerAnglesHint.x
      value: 0
      objectReference: {fileID: 0}
    - target: {fileID: 3269074020218702824, guid: d31d9ab1baeb2f64bb9c1fe79d807607, type: 3}
      propertyPath: m_LocalEulerAnglesHint.y
      value: 0
      objectReference: {fileID: 0}
    - target: {fileID: 3269074020218702824, guid: d31d9ab1baeb2f64bb9c1fe79d807607, type: 3}
      propertyPath: m_LocalEulerAnglesHint.z
      value: 0
      objectReference: {fileID: 0}
    - target: {fileID: 6165376264833514548, guid: d31d9ab1baeb2f64bb9c1fe79d807607, type: 3}
      propertyPath: m_Name
      value: Bubulle
      objectReference: {fileID: 0}
    - target: {fileID: 6361409183968205338, guid: d31d9ab1baeb2f64bb9c1fe79d807607, type: 3}
      propertyPath: m_Size.x
      value: 3
      objectReference: {fileID: 0}
    - target: {fileID: 6361409183968205338, guid: d31d9ab1baeb2f64bb9c1fe79d807607, type: 3}
      propertyPath: m_Size.y
      value: 3
      objectReference: {fileID: 0}
    - target: {fileID: 6361409183968205338, guid: d31d9ab1baeb2f64bb9c1fe79d807607, type: 3}
      propertyPath: m_Offset.y
      value: 1.2
      objectReference: {fileID: 0}
    - target: {fileID: 6361409183968205338, guid: d31d9ab1baeb2f64bb9c1fe79d807607, type: 3}
      propertyPath: m_SpriteTilingProperty.pivot.x
      value: 0.5
      objectReference: {fileID: 0}
    - target: {fileID: 6361409183968205338, guid: d31d9ab1baeb2f64bb9c1fe79d807607, type: 3}
      propertyPath: m_SpriteTilingProperty.pivot.y
      value: 0.2
      objectReference: {fileID: 0}
    - target: {fileID: 6361409183968205338, guid: d31d9ab1baeb2f64bb9c1fe79d807607, type: 3}
      propertyPath: m_SpriteTilingProperty.newSize.x
      value: 6
      objectReference: {fileID: 0}
    - target: {fileID: 6361409183968205338, guid: d31d9ab1baeb2f64bb9c1fe79d807607, type: 3}
      propertyPath: m_SpriteTilingProperty.newSize.y
      value: 6
      objectReference: {fileID: 0}
    - target: {fileID: 6361409183968205338, guid: d31d9ab1baeb2f64bb9c1fe79d807607, type: 3}
      propertyPath: m_SpriteTilingProperty.oldSize.x
      value: 6
      objectReference: {fileID: 0}
    - target: {fileID: 6361409183968205338, guid: d31d9ab1baeb2f64bb9c1fe79d807607, type: 3}
      propertyPath: m_SpriteTilingProperty.oldSize.y
      value: 6
      objectReference: {fileID: 0}
    - target: {fileID: 6361409183968205338, guid: d31d9ab1baeb2f64bb9c1fe79d807607, type: 3}
      propertyPath: m_SpriteTilingProperty.adaptiveTilingThreshold
      value: 0.5
      objectReference: {fileID: 0}
    - target: {fileID: 8626180295843913895, guid: d31d9ab1baeb2f64bb9c1fe79d807607, type: 3}
      propertyPath: m_FlipX
      value: 1
      objectReference: {fileID: 0}
    - target: {fileID: 8626180295843913895, guid: d31d9ab1baeb2f64bb9c1fe79d807607, type: 3}
      propertyPath: m_Size.x
      value: 6
      objectReference: {fileID: 0}
    - target: {fileID: 8626180295843913895, guid: d31d9ab1baeb2f64bb9c1fe79d807607, type: 3}
      propertyPath: m_Size.y
      value: 6
      objectReference: {fileID: 0}
    - target: {fileID: 8626180295843913895, guid: d31d9ab1baeb2f64bb9c1fe79d807607, type: 3}
      propertyPath: m_Sprite
      value: 
      objectReference: {fileID: 21300000, guid: a1ea8ed0c891ada45b9be7ae8e2c37c2, type: 3}
    - target: {fileID: 8626180295843913895, guid: d31d9ab1baeb2f64bb9c1fe79d807607, type: 3}
      propertyPath: m_WasSpriteAssigned
      value: 1
      objectReference: {fileID: 0}
    m_RemovedComponents: []
  m_SourcePrefab: {fileID: 100100000, guid: d31d9ab1baeb2f64bb9c1fe79d807607, type: 3}
--- !u!1 &6742098866910330366 stripped
GameObject:
  m_CorrespondingSourceObject: {fileID: 6165376264833514548, guid: d31d9ab1baeb2f64bb9c1fe79d807607, type: 3}
  m_PrefabInstance: {fileID: 585307692886016458}
  m_PrefabAsset: {fileID: 0}
