%YAML 1.1
%TAG !u! tag:unity3d.com,2011:
--- !u!74 &7400000
AnimationClip:
  m_ObjectHideFlags: 0
  m_CorrespondingSourceObject: {fileID: 0}
  m_PrefabInstance: {fileID: 0}
  m_PrefabAsset: {fileID: 0}
  m_Name: Soldier Dying
  serializedVersion: 6
  m_Legacy: 0
  m_Compressed: 0
  m_UseHighQualityCurve: 1
  m_RotationCurves: []
  m_CompressedRotationCurves: []
  m_EulerCurves: []
  m_PositionCurves: []
  m_ScaleCurves: []
  m_FloatCurves: []
  m_PPtrCurves:
  - curve:
    - time: 0
      value: {fileID: 21300000, guid: cca7b677b75bb0d45b881063c14fcec8, type: 3}
    - time: 0.016666668
      value: {fileID: 21300000, guid: 0038701e54c4e6a4fb58bd751b174515, type: 3}
    - time: 0.033333335
      value: {fileID: 21300000, guid: 26579384978efb54495f07325c2ae5f2, type: 3}
    - time: 0.05
      value: {fileID: 21300000, guid: af14802293a105645a6b639bef9bbcaf, type: 3}
    - time: 0.06666667
      value: {fileID: 21300000, guid: b66d50343924a1a4887fb10917005bf6, type: 3}
    - time: 0.083333336
      value: {fileID: 21300000, guid: 76ba2dd82c40ba34ba996aada3cfcb47, type: 3}
    - time: 0.1
      value: {fileID: 21300000, guid: 8616bb67d9dd8e34980795fba833ce9b, type: 3}
    - time: 0.11666667
      value: {fileID: 21300000, guid: 46566e9100e54e04d8214419afa48ebf, type: 3}
    - time: 0.13333334
      value: {fileID: 21300000, guid: 0ebb58e77d396b34092f95ddc9528b16, type: 3}
    - time: 0.15
      value: {fileID: 21300000, guid: 3b975ee845cec3d489f5bfcdd6e9fcc8, type: 3}
    - time: 0.16666667
      value: {fileID: 21300000, guid: 33bcc7590eda57a409e2f954e7793de9, type: 3}
    - time: 0.18333334
      value: {fileID: 21300000, guid: 812949e320f35c4459bd98919e66df59, type: 3}
    - time: 0.2
      value: {fileID: 21300000, guid: fd5a7189e47d8b74e9a3820aef1fa515, type: 3}
    - time: 0.21666667
      value: {fileID: 21300000, guid: b8c7c131802b4684799c556ba1cd2e44, type: 3}
    - time: 0.23333333
      value: {fileID: 21300000, guid: f6313a74ab030494995981998d68aeed, type: 3}
    attribute: m_Sprite
    path: 
    classID: 212
    script: {fileID: 0}
  m_SampleRate: 60
  m_WrapMode: 0
  m_Bounds:
    m_Center: {x: 0, y: 0, z: 0}
    m_Extent: {x: 0, y: 0, z: 0}
  m_ClipBindingConstant:
    genericBindings:
    - serializedVersion: 2
      path: 0
      attribute: 0
      script: {fileID: 0}
      typeID: 212
      customType: 23
      isPPtrCurve: 1
    pptrCurveMapping:
    - {fileID: 21300000, guid: cca7b677b75bb0d45b881063c14fcec8, type: 3}
    - {fileID: 21300000, guid: 0038701e54c4e6a4fb58bd751b174515, type: 3}
    - {fileID: 21300000, guid: 26579384978efb54495f07325c2ae5f2, type: 3}
    - {fileID: 21300000, guid: af14802293a105645a6b639bef9bbcaf, type: 3}
    - {fileID: 21300000, guid: b66d50343924a1a4887fb10917005bf6, type: 3}
    - {fileID: 21300000, guid: 76ba2dd82c40ba34ba996aada3cfcb47, type: 3}
    - {fileID: 21300000, guid: 8616bb67d9dd8e34980795fba833ce9b, type: 3}
    - {fileID: 21300000, guid: 46566e9100e54e04d8214419afa48ebf, type: 3}
    - {fileID: 21300000, guid: 0ebb58e77d396b34092f95ddc9528b16, type: 3}
    - {fileID: 21300000, guid: 3b975ee845cec3d489f5bfcdd6e9fcc8, type: 3}
    - {fileID: 21300000, guid: 33bcc7590eda57a409e2f954e7793de9, type: 3}
    - {fileID: 21300000, guid: 812949e320f35c4459bd98919e66df59, type: 3}
    - {fileID: 21300000, guid: fd5a7189e47d8b74e9a3820aef1fa515, type: 3}
    - {fileID: 21300000, guid: b8c7c131802b4684799c556ba1cd2e44, type: 3}
    - {fileID: 21300000, guid: f6313a74ab030494995981998d68aeed, type: 3}
  m_AnimationClipSettings:
    serializedVersion: 2
    m_AdditiveReferencePoseClip: {fileID: 0}
    m_AdditiveReferencePoseTime: 0
    m_StartTime: 0
    m_StopTime: 0.25
    m_OrientationOffsetY: 0
    m_Level: 0
    m_CycleOffset: 0
    m_HasAdditiveReferencePose: 0
    m_LoopTime: 0
    m_LoopBlend: 0
    m_LoopBlendOrientation: 0
    m_LoopBlendPositionY: 0
    m_LoopBlendPositionXZ: 0
    m_KeepOriginalOrientation: 0
    m_KeepOriginalPositionY: 1
    m_KeepOriginalPositionXZ: 0
    m_HeightFromFeet: 0
    m_Mirror: 0
  m_EditorCurves: []
  m_EulerEditorCurves: []
  m_HasGenericRootTransform: 0
  m_HasMotionFloatCurves: 0
  m_Events: []
