%YAML 1.1
%TAG !u! tag:unity3d.com,2011:
--- !u!74 &7400000
AnimationClip:
  m_ObjectHideFlags: 0
  m_CorrespondingSourceObject: {fileID: 0}
  m_PrefabInstance: {fileID: 0}
  m_PrefabAsset: {fileID: 0}
  m_Name: Soldier Shooting
  serializedVersion: 6
  m_Legacy: 0
  m_Compressed: 0
  m_UseHighQualityCurve: 1
  m_RotationCurves: []
  m_CompressedRotationCurves: []
  m_EulerCurves: []
  m_PositionCurves: []
  m_ScaleCurves: []
  m_FloatCurves: []
  m_PPtrCurves:
  - curve:
    - time: 0
      value: {fileID: 21300000, guid: cbd2f773b0f741342adb7f6a25d5bccf, type: 3}
    - time: 0.016666668
      value: {fileID: 21300000, guid: e537e2cf313b5d248b3eb8813d84e761, type: 3}
    - time: 0.033333335
      value: {fileID: 21300000, guid: a4fe5456733847f4386ec3dbfd8cd23c, type: 3}
    - time: 0.05
      value: {fileID: 21300000, guid: dcbadab14cc3ee24ea2a7737b34cf374, type: 3}
    - time: 0.06666667
      value: {fileID: 21300000, guid: a39f44291eff5ee4294ee9807b7a6147, type: 3}
    - time: 0.083333336
      value: {fileID: 21300000, guid: be396ea79312c194e85210013b5781ba, type: 3}
    - time: 0.1
      value: {fileID: 21300000, guid: 97ef07b7a4b232949a242dfae9ababcc, type: 3}
    - time: 0.11666667
      value: {fileID: 21300000, guid: 4fce3e12b1a78f941ad15e67725f1673, type: 3}
    - time: 0.13333334
      value: {fileID: 21300000, guid: f2cec82296da623418792703ba275f4b, type: 3}
    - time: 0.15
      value: {fileID: 21300000, guid: 7dae6f1ef9f0d8e4580df842764a6e39, type: 3}
    - time: 0.16666667
      value: {fileID: 21300000, guid: 15ccbe537dbc8824b8bf92f667313dda, type: 3}
    - time: 0.18333334
      value: {fileID: 21300000, guid: 4a80adfa0bf8d234b8f84c32bb89d45a, type: 3}
    attribute: m_Sprite
    path: 
    classID: 212
    script: {fileID: 0}
  m_SampleRate: 60
  m_WrapMode: 0
  m_Bounds:
    m_Center: {x: 0, y: 0, z: 0}
    m_Extent: {x: 0, y: 0, z: 0}
  m_ClipBindingConstant:
    genericBindings:
    - serializedVersion: 2
      path: 0
      attribute: 0
      script: {fileID: 0}
      typeID: 212
      customType: 23
      isPPtrCurve: 1
    pptrCurveMapping:
    - {fileID: 21300000, guid: cbd2f773b0f741342adb7f6a25d5bccf, type: 3}
    - {fileID: 21300000, guid: e537e2cf313b5d248b3eb8813d84e761, type: 3}
    - {fileID: 21300000, guid: a4fe5456733847f4386ec3dbfd8cd23c, type: 3}
    - {fileID: 21300000, guid: dcbadab14cc3ee24ea2a7737b34cf374, type: 3}
    - {fileID: 21300000, guid: a39f44291eff5ee4294ee9807b7a6147, type: 3}
    - {fileID: 21300000, guid: be396ea79312c194e85210013b5781ba, type: 3}
    - {fileID: 21300000, guid: 97ef07b7a4b232949a242dfae9ababcc, type: 3}
    - {fileID: 21300000, guid: 4fce3e12b1a78f941ad15e67725f1673, type: 3}
    - {fileID: 21300000, guid: f2cec82296da623418792703ba275f4b, type: 3}
    - {fileID: 21300000, guid: 7dae6f1ef9f0d8e4580df842764a6e39, type: 3}
    - {fileID: 21300000, guid: 15ccbe537dbc8824b8bf92f667313dda, type: 3}
    - {fileID: 21300000, guid: 4a80adfa0bf8d234b8f84c32bb89d45a, type: 3}
  m_AnimationClipSettings:
    serializedVersion: 2
    m_AdditiveReferencePoseClip: {fileID: 0}
    m_AdditiveReferencePoseTime: 0
    m_StartTime: 0
    m_StopTime: 0.2
    m_OrientationOffsetY: 0
    m_Level: 0
    m_CycleOffset: 0
    m_HasAdditiveReferencePose: 0
    m_LoopTime: 0
    m_LoopBlend: 0
    m_LoopBlendOrientation: 0
    m_LoopBlendPositionY: 0
    m_LoopBlendPositionXZ: 0
    m_KeepOriginalOrientation: 0
    m_KeepOriginalPositionY: 1
    m_KeepOriginalPositionXZ: 0
    m_HeightFromFeet: 0
    m_Mirror: 0
  m_EditorCurves: []
  m_EulerEditorCurves: []
  m_HasGenericRootTransform: 0
  m_HasMotionFloatCurves: 0
  m_Events: []
