%YAML 1.1
%TAG !u! tag:unity3d.com,2011:
--- !u!114 &11400000
MonoBehaviour:
  m_ObjectHideFlags: 0
  m_CorrespondingSourceObject: {fileID: 0}
  m_PrefabInstance: {fileID: 0}
  m_PrefabAsset: {fileID: 0}
  m_GameObject: {fileID: 0}
  m_Enabled: 1
  m_EditorHideFlags: 0
  m_Script: {fileID: 11500000, guid: b5987d4659c586a4b9f6a29c292a7a3d, type: 3}
  m_Name: DestinyBlade
  m_EditorClassIdentifier: 
  _type: 0
  _maxStackSize: 1
  _icon: {fileID: 21300000, guid: 4100ef17cc1d40c46849f926e8506248, type: 3}
  _modifiersData:
  - StatModifier: {fileID: 11400000, guid: e0185fe3ae2abc741b8b98d2c9d72c22, type: 2}
    value: 25
  - StatModifier: {fileID: 11400000, guid: 185f822c806c7d54b80cea06556a9449, type: 2}
    value: 1
  _equipType: 3
