%YAML 1.1
%TAG !u! tag:unity3d.com,2011:
--- !u!74 &7400000
AnimationClip:
  m_ObjectHideFlags: 0
  m_CorrespondingSourceObject: {fileID: 0}
  m_PrefabInstance: {fileID: 0}
  m_PrefabAsset: {fileID: 0}
  m_Name: Monster 06 Dying
  serializedVersion: 6
  m_Legacy: 0
  m_Compressed: 0
  m_UseHighQualityCurve: 1
  m_RotationCurves: []
  m_CompressedRotationCurves: []
  m_EulerCurves: []
  m_PositionCurves: []
  m_ScaleCurves: []
  m_FloatCurves: []
  m_PPtrCurves:
  - curve:
    - time: 0
      value: {fileID: 21300000, guid: c177f122eec997d42a1e11e210c42d3c, type: 3}
    - time: 0.016666668
      value: {fileID: 21300000, guid: dfb65567d94aebc4da9392dd0fe43f2b, type: 3}
    - time: 0.033333335
      value: {fileID: 21300000, guid: a5d2f128475408a41a53bd955df45325, type: 3}
    - time: 0.05
      value: {fileID: 21300000, guid: 61373c8e56980484c86a4101e3afd16d, type: 3}
    - time: 0.06666667
      value: {fileID: 21300000, guid: 6cefb47859022194b81fb2c3ba00351f, type: 3}
    - time: 0.083333336
      value: {fileID: 21300000, guid: 880b054d5b6f8d54188edfc1a347e32f, type: 3}
    - time: 0.1
      value: {fileID: 21300000, guid: b9d76c7770d2cbf46a02b73a9c40bf61, type: 3}
    - time: 0.11666667
      value: {fileID: 21300000, guid: 428ba9163e48ff64cabacffe8c6b76d2, type: 3}
    - time: 0.13333334
      value: {fileID: 21300000, guid: ba9c137c659a833498d332d621599e03, type: 3}
    - time: 0.15
      value: {fileID: 21300000, guid: 892b3fff016493046adecd8fad46c0f2, type: 3}
    - time: 0.16666667
      value: {fileID: 21300000, guid: 9ba60e4c35fec5d4fb17248e0b4870fc, type: 3}
    - time: 0.18333334
      value: {fileID: 21300000, guid: cac5e9c4fb7d54d49a2e06ef6ee695b8, type: 3}
    - time: 0.2
      value: {fileID: 21300000, guid: bb424a38148b81247959117c2c1b1a4b, type: 3}
    - time: 0.21666667
      value: {fileID: 21300000, guid: a907d4200206c4447a8d8d0edadbcabc, type: 3}
    - time: 0.23333333
      value: {fileID: 21300000, guid: 98349d7a582647948ba007fdfce0d3af, type: 3}
    attribute: m_Sprite
    path: 
    classID: 212
    script: {fileID: 0}
  m_SampleRate: 60
  m_WrapMode: 0
  m_Bounds:
    m_Center: {x: 0, y: 0, z: 0}
    m_Extent: {x: 0, y: 0, z: 0}
  m_ClipBindingConstant:
    genericBindings:
    - serializedVersion: 2
      path: 0
      attribute: 0
      script: {fileID: 0}
      typeID: 212
      customType: 23
      isPPtrCurve: 1
    pptrCurveMapping:
    - {fileID: 21300000, guid: c177f122eec997d42a1e11e210c42d3c, type: 3}
    - {fileID: 21300000, guid: dfb65567d94aebc4da9392dd0fe43f2b, type: 3}
    - {fileID: 21300000, guid: a5d2f128475408a41a53bd955df45325, type: 3}
    - {fileID: 21300000, guid: 61373c8e56980484c86a4101e3afd16d, type: 3}
    - {fileID: 21300000, guid: 6cefb47859022194b81fb2c3ba00351f, type: 3}
    - {fileID: 21300000, guid: 880b054d5b6f8d54188edfc1a347e32f, type: 3}
    - {fileID: 21300000, guid: b9d76c7770d2cbf46a02b73a9c40bf61, type: 3}
    - {fileID: 21300000, guid: 428ba9163e48ff64cabacffe8c6b76d2, type: 3}
    - {fileID: 21300000, guid: ba9c137c659a833498d332d621599e03, type: 3}
    - {fileID: 21300000, guid: 892b3fff016493046adecd8fad46c0f2, type: 3}
    - {fileID: 21300000, guid: 9ba60e4c35fec5d4fb17248e0b4870fc, type: 3}
    - {fileID: 21300000, guid: cac5e9c4fb7d54d49a2e06ef6ee695b8, type: 3}
    - {fileID: 21300000, guid: bb424a38148b81247959117c2c1b1a4b, type: 3}
    - {fileID: 21300000, guid: a907d4200206c4447a8d8d0edadbcabc, type: 3}
    - {fileID: 21300000, guid: 98349d7a582647948ba007fdfce0d3af, type: 3}
  m_AnimationClipSettings:
    serializedVersion: 2
    m_AdditiveReferencePoseClip: {fileID: 0}
    m_AdditiveReferencePoseTime: 0
    m_StartTime: 0
    m_StopTime: 0.25
    m_OrientationOffsetY: 0
    m_Level: 0
    m_CycleOffset: 0
    m_HasAdditiveReferencePose: 0
    m_LoopTime: 0
    m_LoopBlend: 0
    m_LoopBlendOrientation: 0
    m_LoopBlendPositionY: 0
    m_LoopBlendPositionXZ: 0
    m_KeepOriginalOrientation: 0
    m_KeepOriginalPositionY: 1
    m_KeepOriginalPositionXZ: 0
    m_HeightFromFeet: 0
    m_Mirror: 0
  m_EditorCurves: []
  m_EulerEditorCurves: []
  m_HasGenericRootTransform: 0
  m_HasMotionFloatCurves: 0
  m_Events: []
