%YAML 1.1
%TAG !u! tag:unity3d.com,2011:
--- !u!114 &11400000
MonoBehaviour:
  m_ObjectHideFlags: 0
  m_CorrespondingSourceObject: {fileID: 0}
  m_PrefabInstance: {fileID: 0}
  m_PrefabAsset: {fileID: 0}
  m_GameObject: {fileID: 0}
  m_Enabled: 1
  m_EditorHideFlags: 0
  m_Script: {fileID: 11500000, guid: f075b642186a3c643b85e18b3f1b5a7f, type: 3}
  m_Name: Fireball
  m_EditorClassIdentifier: 
  _amount: 10
  _range: 2
  _actionCost: 2
  _bEnum: 0
  _sprite: {fileID: 0}
